{
  "Home": {
    "PresidingOfficer_Index": [
      {
        "text": "[Home]",
        "value": "/Home"
      },
      {
        "text": "Pannel Of Vice Chairmen",
        "value": "#"
      }
    ],
    "PannelOfViceChairmen": [
      {
        "text": "[Home]",
        "value": "/Home"
      },
      {
        "text": "Pannel Of Vice Chairmen",
        "value": "#"
      }
    ],
    "SecretaryGeneral_Index": [
      {
        "text": "[Home]",
        "value": "/Home"
      },
      {
        "text": "Secretary General",
        "value": "#"
      }
    ],
    "SecretaryGeneral": [
      {
        "text": "[Home]",
        "value": "/Home"
      },
      {
        "text": "Secretary General",
        "value": "#"
      }
    ],
    "present": [
      {
        "text": "[Home]",
        "value": "/Home"
      },
      {
        "text": "Secretary General",
        "value": "/Home/SecretaryGeneral_Index"
      },
      {
        "text": "Present",
        "value": "#"
      }
    ],
    "former": [
      {
        "text": "[Home]",
        "value": "/Home"
      },
      {
        "text": "Secretary General",
        "value": "/Home/SecretaryGeneral_Index"
      },
      {
        "text": "Former",
        "value": "#"
      }
    ],
    "CouncilOfStates": [
      {
        "text": "[Home]",
        "value": "/Home"
      },
      {
        "text": "Council Of States",
        "value": "#"
      }
    ],
    "Chairman": [
      {
        "text": "[Home]",
        "value": "/Home"
      },
      {
        "text": "Chairman",
        "value": "#"
      }
    ],
    "FormerChairman": [
      {
        "text": "[Home]",
        "value": "/Home"
      },
      {
        "text": "Chairman",
        "value": "/Home/Chairman"
      },
      {
        "text": "Former",
        "value": "#"
      }
    ],
    "ChairmanDeputy": [
      {
        "text": "[Home]",
        "value": "/Home"
      },
      {
        "text": "Deputy Chairman",
        "value": "#"
      }
    ],
    "FormerDeputyChairman": [
      {
        "text": "[Home]",
        "value": "/Home"
      },
      {
        "text": "Deputy Chairman",
        "value": "/Home/ChairmanDeputy"
      },
      {
        "text": "Former Deputy Chairman",
        "value": "#"
      }
    ],
    "LeaderOfHouse": [
      {
        "text": "[Home]",
        "value": "/Home"
      },
      {
        "text": "Leader Of The House",
        "value": "#"
      }
    ],
    "FormerLeaderOfHouse": [
      {
        "text": "[Home]",
        "value": "/Home"
      },
      {
        "text": "Leader Of The House",
        "value": "/Home/LeaderOfHouse"
      },
      {
        "text": "Former Leader Of The House",
        "value": "#"
      }
    ],
    "LeaderOfOpposition": [
      {
        "text": "[Home]",
        "value": "/Home"
      },
      {
        "text": "Leader Of Opposition",
        "value": "#"
      }
    ],
    "FormerLeaderOfOpposition": [
      {
        "text": "[Home]",
        "value": "/Home"
      },
      {
        "text": "Leader Of Opposition",
        "value": "/Home/LeaderOfOpposition"
      },
      {
        "text": "Former Leader Of Opposition",
        "value": "#"
      }
    ],
    "ImpParliamentaryTerm": [
      {
        "text": "[Home]",
        "value": "/Home"
      },
      {
        "text": "Important Parliamentary Term",
        "value": "#"
      }
    ],
    "VisitParliament": [
      {
        "text": "[Home]",
        "value": "/Home"
      },
      {
        "text": "Visit Parliament",
        "value": "#"
      }
    ]
  },
  "RajyaSabhaSecretariat": {
    "Index": [
      {
        "text": "[Home]",
        "value": "/Home"
      },
      {
        "text": "Rajya Sabha Secretariat",
        "value": "#"
      }
    ],
    "TelephoneDirectories": [
      {
        "text": "[Home]",
        "value": "/Home"
      },
      {
        "text": "Rajya Sabha Secretariat",
        "value": "/RajyaSabhaSecretariat"
      },
      {
        "text": "Telephone Directories(Allied Services)",
        "value": "#"
      }
    ],
    "DemandGrants": [
      {
        "text": "[Home]",
        "value": "/Home"
      },
      {
        "text": "Rajya Sabha Secretariat",
        "value": "/RajyaSabhaSecretariat"
      },
      {
        "text": "Demand for Grants",
        "value": "#"
      }
    ],
    "SenctionedPosition": [
      {
        "text": "[Home]",
        "value": "/Home"
      },
      {
        "text": "Rajya Sabha Secretariat",
        "value": "/RajyaSabhaSecretariat"
      },
      {
        "text": "Senctioned & in position in the secretariat",
        "value": "#"
      }
    ],
    "ManualOfficeProcedure": [
      {
        "text": "[Home]",
        "value": "/Home"
      },
      {
        "text": "Rajya Sabha Secretariat",
        "value": "/RajyaSabhaSecretariat"
      },
      {
        "text": "Manual of office procedure",
        "value": "#"
      }
    ],
    "AnnualAdministrativeReports": [
      {
        "text": "[Home]",
        "value": "/Home"
      },
      {
        "text": "Rajya Sabha Secretariat",
        "value": "/RajyaSabhaSecretariat"
      },
      {
        "text": "Annual/Administrative reports",
        "value": "#"
      }
    ]
  },
  "Members": {
    "Index": [
      {
        "text": "[Home]",
        "value": "/Home"
      },
      {
        "text": "Sitting Members",
        "value": "/Members"
      },
      {
        "text": "Members List",
        "value": "/Members"
      },
      {
        "text": "Alphabetical",
        "value": "#"
      }
    ],
    "TermWise": [
      {
        "text": "[Home]",
        "value": "/Home"
      },
      {
        "text": "Sitting Members",
        "value": "/Members"
      },
      {
        "text": "Members List",
        "value": "/Members"
      },
      {
        "text": "Term Wise",
        "value": "#"
      }
    ],
    "StateWise": [
      {
        "text": "[Home]",
        "value": "/Home"
      },
      {
        "text": "Sitting Members",
        "value": "/Members"
      },
      {
        "text": "Members List",
        "value": "/Members"
      },
      {
        "text": "State Wise",
        "value": "#"
      }
    ],
    "PartyWise": [
      {
        "text": "[Home]",
        "value": "/Home"
      },
      {
        "text": "Sitting Members",
        "value": "/Members"
      },
      {
        "text": "Members List",
        "value": "/Members"
      },
      {
        "text": "Party Wise",
        "value": "#"
      }
    ],
    "PartyPosition": [
      {
        "text": "[Home]",
        "value": "/Home"
      },
      {
        "text": "Sitting Members",
        "value": "/Members"
      },
      {
        "text": "Party Position",
        "value": "#"
      }
    ],
    "Email": [
      {
        "text": "[Home]",
        "value": "/Home"
      },
      {
        "text": "Sitting Members",
        "value": "/Members"
      },
      {
        "text": "E-mail",
        "value": "#"
      }
    ],
    "BilingualList": [
      {
        "text": "[Home]",
        "value": "/Home"
      },
      {
        "text": "Sitting Members",
        "value": "/Members"
      },
      {
        "text": "Bilingual List",
        "value": "#"
      }
    ],
    "BirthdayWise": [
      {
        "text": "[Home]",
        "value": "/Home"
      },
      {
        "text": "Sitting Members",
        "value": "/Members"
      },
      {
        "text": "Members List",
        "value": "/Members"
      },
      {
        "text": "Birthday Wise",
        "value": "#"
      }
    ],
    "CouncilMinisters": [
      {
        "text": "[Home]",
        "value": "/Home"
      },
      {
        "text": "Sitting Members",
        "value": "/Members"
      },
      {
        "text": "Members List",
        "value": "/Members"
      },
      {
        "text": "Council Ministers",
        "value": "#"
      }
    ],
    "Women": [
      {
        "text": "[Home]",
        "value": "/Home"
      },
      {
        "text": "Sitting Members",
        "value": "/Members"
      },
      {
        "text": "Members List",
        "value": "/Members"
      },
      {
        "text": "Women",
        "value": "#"
      }
    ],
    "EntitlementOfSittingMembers": [
      {
        "text": "[Home]",
        "value": "/Home"
      },
      {
        "text": "Sitting Members",
        "value": "/Members"
      },
      {
        "text": "Entitlement Of Sitting Members",
        "value": "#"
      }
    ],
    "Address_Alpha": [
      {
        "text": "[Home]",
        "value": "/Home"
      },
      {
        "text": "Sitting Members",
        "value": "/Members"
      },
      {
        "text": "Alphabetical Address",
        "value": "#"
      }
    ],
    "Address_Party": [
      {
        "text": "[Home]",
        "value": "/Home"
      },
      {
        "text": "Sitting Members",
        "value": "/Members"
      },
      {
        "text": "Party Wise Address",
        "value": "#"
      }
    ],
    "Address_State": [
      {
        "text": "[Home]",
        "value": "/Home"
      },
      {
        "text": "Sitting Members",
        "value": "/Members"
      },
      {
        "text": "State Wise Address",
        "value": "#"
      }
    ],
    "Former": [
      {
        "text": "[Home]",
        "value": "/Home"
      },
      {
        "text": "Former Members",
        "value": "#"
      },
      {
        "text": "Members List",
        "value": "#"
      },
      {
        "text": "Alphabetical",
        "value": "#"
      }
    ],
    "EntitlementOfFormerMembers": [
      {
        "text": "[Home]",
        "value": "/Home"
      },
      {
        "text": "Former Members",
        "value": "#"
      },
      {
        "text": "Entitlement Of Former Members",
        "value": "#"
      }
    ],
    "CodeOfConduct": [
      {
        "text": "[Home]",
        "value": "/Home"
      },
      {
        "text": "Members",
        "value": "/Members"
      },
      {
        "text": "Code of Conduct",
        "value": "#"
      }
    ],
    "DeclarationofAssetsandLiabilities": [
      {
        "text": "[Home]",
        "value": "/Home"
      },
      {
        "text": "Members",
        "value": "/Members"
      },
      {
        "text": "Declaration of Assets and Liabilities",
        "value": "#"
      }
    ],
    "BreifBio": [
      {
        "text": "[Home]",
        "value": "/Home"
      },
      {
        "text": "Members",
        "value": "/Members"
      },
      {
        "text": "RAJYA SABHA MEMBERS BIOGRAPHICAL SKETCHES 1952 - 2003",
        "value": "#"
      }
    ],
    "MPLADS": [
      {
        "text": "[Home]",
        "value": "/Home"
      },
      {
        "text": "Members",
        "value": "/Members"
      },
      {
        "text": "MPLADS",
        "value": "#"
      }
    ],
    "Orientation": [
      {
        "text": "[Home]",
        "value": "/Home"
      },
      {
        "text": "Members",
        "value": "/Members"
      },
      {
        "text": "Orientation",
        "value": "#"
      }
    ],
    "SalaryAct": [
      {
        "text": "[Home]",
        "value": "/Home"
      },
      {
        "text": "Members",
        "value": "/Members"
      },
      {
        "text": "SALARY AND ALLOWANCES TO MEMBERS ACTS",
        "value": "#"
      }
    ],
    "GeneralInformation": [
      {
        "text": "[Home]",
        "value": "/Home"
      },
      {
        "text": "Members",
        "value": "/Members"
      },
      {
        "text": "General Information",
        "value": "#"
      }
    ]
  },

  "CareersInRajyaSabhaSecretariat": {
    "Index": [
      {
        "text": "[Home]",
        "value": "/Home"
      },
      {
        "text": "Careers in Rajya Sabha Secretariat",
        "value": "#"
      }
    ],
    "Disclaimer": [
      {
        "text": "[Home]",
        "value": "/Home"
      },
      {
        "text": "Careers in Rajya Sabha Secretariat",
        "value": "/CareersInRajyaSabhaSecretariat"
      },
      {
        "text": "Disclaimer",
        "value": "#"
      }
    ],
    "ContactUs": [
      {
        "text": "[Home]",
        "value": "/Home"
      },
      {
        "text": "Careers in Rajya Sabha Secretariat",
        "value": "/CareersInRajyaSabhaSecretariat"
      },
      {
        "text": "ContactUs",
        "value": "#"
      }
    ],
    "Result": [
      {
        "text": "[Home]",
        "value": "/Home"
      },
      {
        "text": "Careers in Rajya Sabha Secretariat",
        "value": "/CareersInRajyaSabhaSecretariat"
      },
      {
        "text": "Result",
        "value": "#"
      }
    ],
    "CandidatesInstruction": [
      {
        "text": "[Home]",
        "value": "/Home"
      },
      {
        "text": "Careers in Rajya Sabha Secretariat",
        "value": "/CareersInRajyaSabhaSecretariat"
      },
      {
        "text": "Instruction to the Candidates",
        "value": "#"
      }
    ],
    "ExaminationSchedule": [
      {
        "text": "[Home]",
        "value": "/Home"
      },
      {
        "text": "Careers in Rajya Sabha Secretariat",
        "value": "/CareersInRajyaSabhaSecretariat"
      },
      {
        "text": "Examination Schedule",
        "value": "#"
      }
    ],
    "DownloadAdmit": [
      {
        "text": "[Home]",
        "value": "/Home"
      },
      {
        "text": "Careers in Rajya Sabha Secretariat",
        "value": "/CareersInRajyaSabhaSecretariat"
      },
      {
        "text": "Downloads Admit Card",
        "value": "#"
      }
    ],
    "OCareers": [
      {
        "text": "[Home]",
        "value": "/Home"
      },
      {
        "text": "Careers in Rajya Sabha Secretariat",
        "value": "/CareersInRajyaSabhaSecretariat"
      },
      {
        "text": "Career",
        "value": "#"
      },
      {
        "text": "Open Competitive Examination",
        "value": "#"
      }
    ],
    "DCareers": [
      {
        "text": "[Home]",
        "value": "/Home"
      },
      {
        "text": "Careers in Rajya Sabha Secretariat",
        "value": "/CareersInRajyaSabhaSecretariat"
      },
      {
        "text": "Career",
        "value": "#"
      },
      {
        "text": "Departmental Examination",
        "value": "#"
      }
    ],
    "StatusOfApplication": [
      {
        "text": "[Home]",
        "value": "/Home"
      },
      {
        "text": "Careers in Rajya Sabha Secretariat",
        "value": "/CareersInRajyaSabhaSecretariat"
      },
      {
        "text": "Status of Application",
        "value": "#"
      }
    ],
    "LatestAdvertisments": [
      {
        "text": "[Home]",
        "value": "/Home"
      },
      {
        "text": "Careers in Rajya Sabha Secretariat",
        "value": "/CareersInRajyaSabhaSecretariat"
      },
      {
        "text": "Latest Advertisments",
        "value": "#"
      }
    ],
    "SYOCExamination": [
      {
        "text": "[Home]",
        "value": "/Home"
      },
      {
        "text": "Careers in Rajya Sabha Secretariat",
        "value": "/CareersInRajyaSabhaSecretariat"
      },
      {
        "text": "Syllabus of Examination",
        "value": "#"
      },
      {
        "text": "Open Competitive Examination",
        "value": "#"
      }
    ],
    "SYDExamination": [
      {
        "text": "[Home]",
        "value": "/Home"
      },
      {
        "text": "Careers in Rajya Sabha Secretariat",
        "value": "/CareersInRajyaSabhaSecretariat"
      },
      {
        "text": "Syllabus of Examination",
        "value": "#"
      },
      {
        "text": "Departmental Examination",
        "value": "#"
      }
    ],
    "SOCExamination": [
      {
        "text": "[Home]",
        "value": "/Home"
      },
      {
        "text": "Careers in Rajya Sabha Secretariat",
        "value": "/CareersInRajyaSabhaSecretariat"
      },
      {
        "text": "Scheme of Examination",
        "value": "#"
      },
      {
        "text": "Open Competitive Examination",
        "value": "#"
      }
    ],
    "SDExamination": [
      {
        "text": "[Home]",
        "value": "/Home"
      },
      {
        "text": "Careers in Rajya Sabha Secretariat",
        "value": "/CareersInRajyaSabhaSecretariat"
      },
      {
        "text": "Scheme of Examination",
        "value": "#"
      },
      {
        "text": "Departmental Examination",
        "value": "#"
      }
    ],
    "FOCExamination": [
      {
        "text": "[Home]",
        "value": "/Home"
      },
      {
        "text": "Careers in Rajya Sabha Secretariat",
        "value": "/CareersInRajyaSabhaSecretariat"
      },
      {
        "text": "Forthcoming Examination",
        "value": "#"
      },
      {
        "text": "Open Competitive Examination",
        "value": "#"
      }
    ],
    "FDExamination": [
      {
        "text": "[Home]",
        "value": "/Home"
      },
      {
        "text": "Careers in Rajya Sabha Secretariat",
        "value": "/CareersInRajyaSabhaSecretariat"
      },
      {
        "text": "Forthcoming Examination",
        "value": "#"
      },
      {
        "text": "Departmental Examination",
        "value": "#"
      }
    ],
    "RecruitmentRules": [
      {
        "text": "[Home]",
        "value": "/Home"
      },
      {
        "text": "Careers in Rajya Sabha Secretariat",
        "value": "/CareersInRajyaSabhaSecretariat"
      },
      {
        "text": "Recruitment Rules",
        "value": "#"
      }
    ]
  },
  "Questions": {
    "Index": [
      {
        "text": "[Home]",
        "value": "/Home"
      },
      {
        "text": "Questions",
        "value": "#"
      }
    ],
    "BallotList": [
      {
        "text": "[Home]",
        "value": "/Home"
      },
      {
        "text": "Questions",
        "value": "/Questions"
      },
      {
        "text": "Ballot List",
        "value": "#"
      }
    ],
    "PendingQStatus": [
      {
        "text": "[Home]",
        "value": "/Home"
      },
      {
        "text": "Questions",
        "value": "/Questions"
      },
      {
        "text": "Pending Question Status",
        "value": "#"
      }
    ],
    "ShortNoticeQuestions": [
      {
        "text": "[Home]",
        "value": "/Home"
      },
      {
        "text": "Questions",
        "value": "/Questions"
      },
      {
        "text": "Short Notice Questions",
        "value": "#"
      }
    ],
    "Default": [
      {
        "text": "[Home]",
        "value": "/Home"
      },
      {
        "text": "Questions",
        "value": "/Questions"
      },
      {
        "text": "Question charts",
        "value": "#"
      }
    ],
    "Introduction": [
      {
        "text": "[Home]",
        "value": "/Home"
      },
      {
        "text": "Questions",
        "value": "/Questions"
      },
      {
        "text": "Introduction",
        "value": "#"
      }
    ],
    "RulesOfProcedure": [
      {
        "text": "[Home]",
        "value": "/Home"
      },
      {
        "text": "Questions",
        "value": "/Questions"
      },
      {
        "text": "Rules of Procedure",
        "value": "#"
      }
    ],
    "GroupingOfMinistries": [
      {
        "text": "[Home]",
        "value": "/Home"
      },
      {
        "text": "Questions",
        "value": "/Questions"
      },
      {
        "text": "Grouping of Ministries",
        "value": "#"
      }
    ],
    "TypesOfQuestions": [
      {
        "text": "[Home]",
        "value": "/Home"
      },
      {
        "text": "Questions",
        "value": "/Questions"
      },
      {
        "text": "Types of Questions",
        "value": "#"
      }
    ],
    "AdmissibilityOfQuestions": [
      {
        "text": "[Home]",
        "value": "/Home"
      },
      {
        "text": "Questions",
        "value": "/Questions"
      },
      {
        "text": "Admissibility of Questions",
        "value": "#"
      }
    ],
    "Archive": [
      {
        "text": "[Home]",
        "value": "/Home"
      },
      {
        "text": "Questions",
        "value": "/Questions"
      },
      {
        "text": "Archive",
        "value": "#"
      }
    ],
    "MinistryWiseSubjects": [
      {
        "text": "[Home]",
        "value": "/Home"
      },
      {
        "text": "Questions",
        "value": "/Questions"
      },
      {
        "text": "Ministry wise Subjects",
        "value": "#"
      }
    ],
    "MinistryWiseNodalOfficers": [
      {
        "text": "[Home]",
        "value": "/Home"
      },
      {
        "text": "Questions",
        "value": "/Questions"
      },
      {
        "text": "Ministry-wise Nodal Officers",
        "value": "#"
      }
    ],
    "SessionWiseStatisticalReport": [
      {
        "text": "[Home]",
        "value": "/Home"
      },
      {
        "text": "Questions",
        "value": "/Questions"
      },
      {
        "text": "Session-wise Statistical Report",
        "value": "#"
      }
    ],
    "DateWise": [
      {
        "text": "[Home]",
        "value": "/Home"
      },
      {
        "text": "Questions",
        "value": "/Questions"
      },
      {
        "text": "Search Questions",
        "value": "#"
      },
      {
        "text": "Date Wise",
        "value": "#"
      }
    ],
    "QuestionNoWise": [
      {
        "text": "[Home]",
        "value": "/Home"
      },
      {
        "text": "Questions",
        "value": "/Questions"
      },
      {
        "text": "Search Questions",
        "value": "#"
      },
      {
        "text": "Question No. Wise",
        "value": "#"
      }
    ],
    "TypeWise": [
      {
        "text": "[Home]",
        "value": "/Home"
      },
      {
        "text": "Questions",
        "value": "/Questions"
      },
      {
        "text": "Search Questions",
        "value": "#"
      },
      {
        "text": "Type Wise",
        "value": "#"
      }
    ],
    "SessionWise": [
      {
        "text": "[Home]",
        "value": "/Home"
      },
      {
        "text": "Questions",
        "value": "/Questions"
      },
      {
        "text": "Search Questions",
        "value": "#"
      },
      {
        "text": "Session Wise",
        "value": "#"
      }
    ],
    "MinistryWise": [
      {
        "text": "[Home]",
        "value": "/Home"
      },
      {
        "text": "Questions",
        "value": "/Questions"
      },
      {
        "text": "Search Questions",
        "value": "#"
      },
      {
        "text": "Ministry Wise",
        "value": "#"
      }
    ]
   
  }
}